{
  "project_info": {
    "project_number": "500342755424",
    "firebase_url": "https://meeting-room-1771a.firebaseio.com",
    "project_id": "meeting-room-1771a",
    "storage_bucket": "meeting-room-1771a.appspot.com"
  },
  "client": [
    {
      "client_info": {
        "mobilesdk_app_id": "1:500342755424:android:bc8930a0571ec354213305",
        "android_client_info": {
          "package_name": "two.com.vn.meeting_room"
        }
      },
      "oauth_client": [
        {
          "client_id": "500342755424-r9iil6h351bg57u3j8fsofku3lttoepc.apps.googleusercontent.com",
          "client_type": 3
        }
      ],
      "api_key": [
        {
          "current_key": "AIzaSyBDu7Fy2M-Xfal4or7dCUyzSswxe7z_VNw"
        }
      ],
      "services": {
        "appinvite_service": {
          "other_platform_oauth_client": [
            {
              "client_id": "500342755424-r9iil6h351bg57u3j8fsofku3lttoepc.apps.googleusercontent.com",
              "client_type": 3
            }
          ]
        }
      }
    }
  ],
  "configuration_version": "1"
}